…
``` r
sber %>% 
  group_by(rfm) %>% 
  dplyr::summarise(n = n())
```

    ## # A tibble: 125 × 2
    ##    rfm       n
    ##    <chr> <int>
    ##  1 111       9
    ##  2 112       9
    ##  3 113       7
    ##  4 114       9
    ##  5 115      18
    ##  6 121      30
    ##  7 122      19
    ##  8 123      27
    ##  9 124      33
    ## 10 125      32
    ## # … with 115 more rows
    ## # ℹ Use `print(n = ...)` to see more rows
…
